ESM 204 HW 4
…
demanda$type<- rep("Sector A", length(demanda$x))
demandb$type<- rep("Sector B", length(demandb$x))
demandc$type<-rep("Sector C", length(demandc$x))
demandd$type<- rep("Sector D", length(demandc$x))

#merging all the demand curves together
all<- rbind(demanda, demandb, demandc, demandd)
all

## # A tibble: 400 x 3
##        x     y type    
##    <dbl> <dbl> <chr>   
##  1  0     95.2 Sector A
##  2  1.67  94.2 Sector A
##  3  3.33  93.3 Sector A
##  4  5.00  92.3 Sector A
##  5  6.67  91.3 Sector A
##  6  8.33  90.4 Sector A
##  7 10.0   89.4 Sector A
##  8 11.7   88.5 Sector A
##  9 13.3   87.5 Sector A
## 10 15.0   86.5 Sector A
## #  with 390 more rows
…
